{
  "$schema": "https://turborepo.org/schema.json",
  "globalDependencies": ["**/.env", "tsconfig.json"],
  "pipeline": {
    "db:generate": {
      "inputs": ["prisma/schema.prisma"],
      "cache": false
    },
    "db:push": {
      "inputs": ["prisma/schema.prisma"],
      "cache": false
    },
    "db:pull": {
      "inputs": ["prisma/schema.prisma"],
      "cache": false
    },
    "dev": {
      "persistent": true,
      "cache": false
    },
    "build": {
      "dependsOn": ["^build", "^db:generate"],
      "outputs": [".next/**", ".expo/**"]
    },
    "lint": {},
    "lint:fix": {},
    "clean": {
      "cache": false
    },
    "//#clean": {
      "cache": false
    },
    "type-check": {
      "dependsOn": ["^db:generate"],
      "cache": false
    }
  },
  "globalEnv": [
    "CI",
    "DATABASE_URL",
    "DISCORD_CLIENT_ID",
    "DISCORD_CLIENT_SECRET",
    "EXPO_ROUTER_APP_ROOT",
    "NEXTAUTH_SECRET",
    "NEXTAUTH_URL",
    "NODE_ENV",
    "SKIP_ENV_VALIDATION",
    "VERCEL",
    "VERCEL_URL",
    "PUSHER_APP_ID",
    "PUSHER_KEY",
    "PUSHER_SECRET",
    "PUSHER_CLUSTER",
    "NEXT_PUBLIC_PUSHER_KEY",
    "NEXT_PUBLIC_PUSHER_CLUSTER"
  ]
}
