{
  "cli": {
    "version": ">= 3.3.0"
  },
  "build": {
    "base": {
      "node": "18.15.0",
      "ios": {
        "resourceClass": "m-medium"
      }
    },
    "development": {
      "extends": "base",
      "developmentClient": true,
      "distribution": "internal" 
    },
    "preview": {
      "extends": "base",
      "distribution": "internal",
      "ios": {
        "simulator": true
      },
      "android": {
        "buildType": "apk",
        "image": "latest"
      }
    },
    "production": {
      "extends": "base"
    }
  },
  "submit": {
    "production": {}
  }
}
