<?xml version="1.0" encoding="utf-8"?>
<svg xmlns="http://www.w3.org/2000/svg" xmlns:xlink="http://www.w3.org/1999/xlink" style="margin: auto; background: rgb(255, 255, 255); display: block; shape-rendering: auto;" width="200px" height="200px" viewBox="0 0 100 100" preserveAspectRatio="xMidYMid">
<circle cx="50" cy="50" r="32" stroke-width="8" stroke="#009387" stroke-dasharray="50.26548245743669 50.26548245743669" fill="none" stroke-linecap="round">
  <animateTransform attributeName="transform" type="rotate" dur="1s" repeatCount="indefinite" keyTimes="0;1" values="0 50 50;360 50 50"></animateTransform>
</circle>
<circle cx="50" cy="50" r="23" stroke-width="8" stroke="#0a504b" stroke-dasharray="36.12831551628262 36.12831551628262" stroke-dashoffset="36.12831551628262" fill="none" stroke-linecap="round">
  <animateTransform attributeName="transform" type="rotate" dur="1s" repeatCount="indefinite" keyTimes="0;1" values="0 50 50;-360 50 50"></animateTransform>
</circle>
<!-- [ldio] generated by https://loading.io/ --></svg>